<svg width="9" height="5" viewBox="0 0 9 5" fill="none" xmlns="http://www.w3.org/2000/svg">
<path d="M3.75477 4.82011L0.171685 1.04856C-0.0563603 0.808646 -0.0563603 0.419663 0.171685 0.179864C0.399528 -0.059955 0.769066 -0.059955 0.996891 0.179864L4.16738 3.5171L7.33775 0.179961C7.56569 -0.0598577 7.93519 -0.0598577 8.16303 0.179961C8.39097 0.41978 8.39097 0.808743 8.16303 1.04866L4.57989 4.8202C4.46591 4.94011 4.31669 5 4.1674 5C4.01803 5 3.8687 4.94 3.75477 4.82011Z" fill="white"/>
</svg>
