<svg width="18" height="18" viewBox="0 0 18 18" fill="none" xmlns="http://www.w3.org/2000/svg">
<g clip-path="url(#clip0)">
<path d="M17.7328 3.3305C17.0808 3.61651 16.386 3.80609 15.6617 3.89814C16.4068 3.45323 16.9756 2.7541 17.2429 1.91142C16.5482 2.32564 15.7811 2.61822 14.9636 2.7815C14.304 2.07908 13.3637 1.64404 12.3381 1.64404C10.3481 1.64404 8.74598 3.25928 8.74598 5.23942C8.74598 5.52433 8.77008 5.79828 8.82926 6.05908C5.84097 5.91334 3.19676 4.48111 1.42045 2.29934C1.11033 2.83739 0.928425 3.45324 0.928425 4.1162C0.928425 5.36105 1.56948 6.46454 2.52503 7.1034C1.94753 7.09244 1.381 6.92478 0.901029 6.66069C0.901029 6.67165 0.901029 6.68589 0.901029 6.70014C0.901029 8.44687 2.14697 9.89773 3.78083 10.232C3.48825 10.3119 3.16937 10.3503 2.83843 10.3503C2.60831 10.3503 2.376 10.3372 2.15793 10.2889C2.62365 11.7124 3.94521 12.7589 5.51661 12.7929C4.29368 13.7495 2.7409 14.3259 1.05992 14.3259C0.765148 14.3259 0.482428 14.3128 0.199707 14.2766C1.79193 15.3034 3.67892 15.8896 5.71385 15.8896C12.3282 15.8896 15.9444 10.4106 15.9444 5.6613C15.9444 5.50241 15.9389 5.349 15.9312 5.19668C16.6446 4.69041 17.244 4.05813 17.7328 3.3305Z" fill="white"/>
</g>
<defs>
<clipPath id="clip0">
<rect width="17.5331" height="17.5331" fill="white" transform="translate(0.199707)"/>
</clipPath>
</defs>
</svg>
