<svg width="20" height="20" viewBox="0 0 20 20" fill="none" xmlns="http://www.w3.org/2000/svg">
<path d="M11 9H9V15H11V9Z" fill="#EBEBEB"/>
<path d="M9.99998 0C4.47501 0 0 4.47501 0 9.99998C0 15.5249 4.47501 20 9.99998 20C15.5249 20 20 15.525 20 9.99998C20 4.47497 15.525 0 9.99998 0ZM9.99998 18C5.58998 18 1.99997 14.41 1.99997 9.99998C1.99997 5.58998 5.58998 2.00001 9.99998 2.00001C14.41 2.00001 18 5.58998 18 9.99998C18 14.41 14.41 18 9.99998 18Z" fill="#EBEBEB"/>
<path d="M11 5H9V7.00002H11V5Z" fill="#EBEBEB"/>
</svg>
